Regression_delay
…
int1_lm = lm(delay ~ . + carrierd*airline,
              data = raw_df_10)

summary(int1_lm) %>% broom::glance()

## # A tibble: 1 × 8
##   r.squared adj.r.squared sigma statistic p.value    df df.residual  nobs
##       <dbl>         <dbl> <dbl>     <dbl>   <dbl> <dbl>       <int> <dbl>
## 1     0.957         0.957  13.8    10016.       0    24       10722 10747

summary(int1_lm) %>% 
  broom::tidy() %>% 
  select(term, estimate, p.value)

## # A tibble: 25 × 3
##    term                     estimate  p.value
##    <chr>                       <dbl>    <dbl>
##  1 (Intercept)                3.11   1.79e- 3
##  2 monthDec                  -2.01   2.81e- 7
##  3 monthNov                  -1.69   1.73e- 4
##  4 airlineDelta Air Lines    -0.0172 9.65e- 1
##  5 airlineAmerican Airlines  -0.157  7.23e- 1
##  6 airlineRepublic Airways   -6.12   2.33e-31
##  7 airlineEndeavor Air       -2.45   2.24e- 4
##  8 airlineAlaska Airlines    -3.85   1.14e- 4
##  9 airlineUnited Air Lines    3.63   2.06e- 2
## 10 carrierd                   0.994  0       
## # … with 15 more rows
